<svg class="hero-design" width="648" height="557" viewBox="0 0 648 557">
  <g id="Hero-image" transform="translate(-1113 -244)">
    <rect id="Rectangle_16" data-name="Rectangle 16" width="177" height="177" rx="32" transform="translate(1113 624)" fill="#fff"/>
    <rect id="Rectangle_30" data-name="Rectangle 30" width="177" height="177" rx="32" transform="translate(1113 248)" fill="#fff"/>
    <rect id="Rectangle_23" data-name="Rectangle 23" width="177" height="177" rx="32" transform="translate(1290 624)" fill="#9f03ff"/>
    <rect id="Rectangle_31" data-name="Rectangle 31" width="273" height="203" rx="32" transform="translate(1488 425)" fill="#9f03ff"/>
    <rect id="Rectangle_29" data-name="Rectangle 29" width="177" height="177" rx="32" transform="translate(1290 244)" fill="#9f03ff"/>
    <g id="Ellipse_1" data-name="Ellipse 1" transform="translate(1290 430)" fill="#fe0081" stroke="#707070" stroke-width="1">
      <circle cx="92.5" cy="92.5" r="92.5" stroke="none"/>
      <circle cx="92.5" cy="92.5" r="92" fill="none"/>
    </g>
  </g>
</svg>
